Workflow • kwb.swmm
…
paths <- kwb.utils::resolve(paths_list)

Read Input

inp <- swmmr::read_inp(paths$model_inp)

## print some inputs
inp$options
#> # A tibble: 34 × 2
#>    Option            Value     
#>    <chr>             <chr>     
#>  1 FLOW_UNITS        LPS       
#>  2 INFILTRATION      HORTON    
#>  3 FLOW_ROUTING      KINWAVE   
#>  4 LINK_OFFSETS      DEPTH     
#>  5 MIN_SLOPE         0         
#>  6 ALLOW_PONDING     NO        
#>  7 SKIP_STEADY_STATE NO        
#>  8 IGNORE_SNOWMELT   YES       
#>  9 START_DATE        04/30/2008
#> 10 START_TIME        00:00:00  
#> # … with 24 more rows
…
#> Reading time series 2/14 ... ok.
#> Reading time series 3/14 ... ok.
#> Reading time series 4/14 ... ok.
#> Reading time series 5/14 ... ok.
#> Reading time series 6/14 ... ok.
#> Reading time series 7/14 ... ok.
#> Reading time series 8/14 ... ok.
#> Reading time series 9/14 ... ok.
#> Reading time series 10/14 ... ok.
#> Reading time series 11/14 ... ok.
#> Reading time series 12/14 ... ok.
#> Reading time series 13/14 ... ok.
#> Reading time series 14/14 ... ok.
results
#> # A tibble: 100,463 × 15
#>    datetime            total_rainfall total_snow_depth average_losses
#>    <dttm>                       <dbl>            <dbl>          <dbl>
#>  1 2008-04-30 01:00:00          0                    0              0
#>  2 2008-04-30 02:00:00          0                    0              0
#>  3 2008-04-30 03:00:00          0                    0              0
#>  4 2008-04-30 04:00:00          0                    0              0
#>  5 2008-04-30 05:00:00          0                    0              0
#>  6 2008-04-30 06:00:00          0                    0              0
#>  7 2008-04-30 07:00:00          0.789                0              0
#>  8 2008-04-30 08:00:00          0                    0              0
#>  9 2008-04-30 09:00:00          0                    0              0
#> 10 2008-04-30 10:00:00          0                    0              0
#> # … with 100,453 more rows, and 11 more variables: total_runoff <dbl>,
#> #   total_dry_weather_inflow <dbl>, total_groundwater_inflow <dbl>,
#> #   total_RDII_inflow <dbl>, total_external_inflow <dbl>,
#> #   total_direct_inflow <dbl>, total_external_flooding <dbl>,
#> #   total_outflow_from_outfalls <dbl>, total_nodal_storage_volume <dbl>,
#> #   potential_evaporation <dbl>, actual_evaporation <dbl>
Calculate Rainstats

results_system <- kwb.swmm::get_results(path_out = paths$model_out,
                                        vIndex = c(1, 4)) %>%
  dplyr::rename(
    total_rainfall_mmPerHour = .data$total_rainfall,
    total_runoff_litrePerSecond = .data$total_runoff
  ) %>%
  dplyr::mutate(total_runoff_mmPerHour = kwb.swmm::lps_to_mmPerHour(.data$total_runoff_litrePerSecond)) %>%
  dplyr::select(-.data$total_runoff_litrePerSecond)
#> Reading time series 1/2 ... ok.
#> Reading time series 2/2 ... ok.

results_system
#> # A tibble: 100,463 × 3
#>    datetime            total_rainfall_mmPerHour total_runoff_mmPerHour
#>    <dttm>                                 <dbl>                  <dbl>
#>  1 2008-04-30 01:00:00                    0                          0
#>  2 2008-04-30 02:00:00                    0                          0
#>  3 2008-04-30 03:00:00                    0                          0
#>  4 2008-04-30 04:00:00                    0                          0
#>  5 2008-04-30 05:00:00                    0                          0
#>  6 2008-04-30 06:00:00                    0                          0
#>  7 2008-04-30 07:00:00                    0.789                      0
#>  8 2008-04-30 08:00:00                    0                          0
#>  9 2008-04-30 09:00:00                    0                          0
#> 10 2008-04-30 10:00:00                    0                          0
#> # … with 100,453 more rows
…
